{
    "app-id": "org.munadi.Munadi",
    "runtime": "org.kde.Platform",
    "runtime-version": "5.15",
    "sdk": "org.kde.Sdk",
    "command": "munadi",
    "finish-args": [
        "--device=dri",
        "--share=ipc", 
        "--socket=x11",
        "--socket=wayland",
        "--share=network",
        "--socket=pulseaudio",
        "--talk-name=org.freedesktop.Notifications"
    ],
    "modules": [
        {
            "name": "munadi",
            "buildsystem": "cmake-ninja",
            "config-opts": ["-DCMAKE_BUILD_TYPE=Release"],
            "sources": [
                {
                    "type": "dir",
                    "path": "../.."
                }
            ]
        }
    ]
}
